<?xml version="1.0" encoding="UTF-8"?>
<session version="1.0">
<refactoring comment="Rename Java project &apos;VolleyballRegistry&apos; to &apos;TennisRegistry&apos;&#x0D;&#x0A;- Original element: &apos;VolleyballRegistry&apos;&#x0D;&#x0A;- Renamed element: &apos;VolleyballRegistry&apos;&#x0D;&#x0A;- Update references to refactored element" description="Rename Java project &apos;VolleyballRegistry&apos;" flags="7" id="org.eclipse.jdt.ui.rename.java.project" input="=VolleyballRegistry" name="TennisRegistry" references="true" stamp="1533924324436" version="1.0"/>
</session>