<?xml version="1.0" encoding="UTF-8"?>
<session version="1.0">
<refactoring comment="Delete 6 resources" deleteContents="false" description="Delete 6 resources" element1="/ClientRMI" element2="/Code Recommenders Snippets" element3="/IFaceRMI" element4="/jeden" element5="/RMI" element6="/ServerRMI" flags="7" id="org.eclipse.ltk.core.refactoring.delete.resources" resources="6" stamp="1534098355979"/>
</session>